{
    "key": "group_5eb066f0f3109",
    "title": "(Phased Out) Homepage Content",
    "fields": [
        {
            "key": "field_5efcf01f40f81",
            "label": "Carousel",
            "name": "",
            "type": "tab",
            "instructions": "",
            "required": 0,
            "conditional_logic": 0,
            "wrapper": {
                "width": "",
                "class": "",
                "id": ""
            },
            "placement": "top",
            "endpoint": 0
        },
        {
            "key": "field_5efcf03140f83",
            "label": "Carousel Items",
            "name": "carousel_items",
            "type": "relationship",
            "instructions": "",
            "required": 0,
            "conditional_logic": 0,
            "wrapper": {
                "width": "",
                "class": "",
                "id": ""
            },
            "post_type": [
                "place"
            ],
            "taxonomy": "",
            "filters": [
                "search",
                "taxonomy"
            ],
            "elements": [
                "featured_image"
            ],
            "min": "",
            "max": "",
            "return_format": "object"
        },
        {
            "key": "field_5efe239812efe",
            "label": "Guides",
            "name": "",
            "type": "tab",
            "instructions": "",
            "required": 0,
            "conditional_logic": 0,
            "wrapper": {
                "width": "",
                "class": "",
                "id": ""
            },
            "placement": "top",
            "endpoint": 0
        },
        {
            "key": "field_610d71a9cdc81",
            "label": "Featured Guides",
            "name": "hp_guide_carousel",
            "type": "relationship",
            "instructions": "Select the city guides you would like to feature on the homepage",
            "required": 0,
            "conditional_logic": 0,
            "wrapper": {
                "width": "",
                "class": "",
                "id": ""
            },
            "post_type": [
                "guide"
            ],
            "taxonomy": "",
            "filters": [
                "search",
                "post_type"
            ],
            "elements": [
                "featured_image"
            ],
            "min": 4,
            "max": 8,
            "return_format": "object"
        },
        {
            "key": "field_5efcf02940f82",
            "label": "Collections",
            "name": "",
            "type": "tab",
            "instructions": "",
            "required": 0,
            "conditional_logic": 0,
            "wrapper": {
                "width": "",
                "class": "",
                "id": ""
            },
            "placement": "top",
            "endpoint": 0
        },
        {
            "key": "field_5eb066f415e06",
            "label": "Featured Colors",
            "name": "hp_featured_colors",
            "type": "taxonomy",
            "instructions": "Add the color groups you would like to feature on the homepage.",
            "required": 0,
            "conditional_logic": 0,
            "wrapper": {
                "width": "",
                "class": "",
                "id": ""
            },
            "taxonomy": "color",
            "field_type": "multi_select",
            "allow_null": 0,
            "add_term": 0,
            "save_terms": 1,
            "load_terms": 1,
            "return_format": "object",
            "multiple": 0
        },
        {
            "key": "field_5eb067cbd954c",
            "label": "Featured Themes",
            "name": "hp_featured_themes",
            "type": "taxonomy",
            "instructions": "Add the themes you would like to feature on the homepage.",
            "required": 0,
            "conditional_logic": 0,
            "wrapper": {
                "width": "",
                "class": "",
                "id": ""
            },
            "taxonomy": "theme",
            "field_type": "multi_select",
            "allow_null": 0,
            "add_term": 0,
            "save_terms": 1,
            "load_terms": 1,
            "return_format": "object",
            "multiple": 0
        }
    ],
    "location": [
        [
            {
                "param": "page_template",
                "operator": "==",
                "value": "template-homepage.php"
            }
        ]
    ],
    "menu_order": 1,
    "position": "acf_after_title",
    "style": "default",
    "label_placement": "top",
    "instruction_placement": "label",
    "hide_on_screen": [
        "the_content",
        "excerpt",
        "discussion",
        "comments",
        "revisions",
        "slug",
        "author",
        "format",
        "page_attributes",
        "categories",
        "tags",
        "send-trackbacks"
    ],
    "active": 1,
    "description": "",
    "modified": 1643824547
}