{
    "key": "group_5ef3860d70837",
    "title": "Photographer Info",
    "fields": [
        {
            "key": "field_5ef386343b562",
            "label": "Website URL",
            "name": "website_url",
            "type": "url",
            "instructions": "<span style=\"color: #ff0000;\">DO NOT USE: This field will be deleted. Use the repeater field below to add a photographers links.<\/span>",
            "required": 0,
            "conditional_logic": 0,
            "wrapper": {
                "width": "",
                "class": "",
                "id": ""
            },
            "default_value": "",
            "placeholder": ""
        },
        {
            "key": "field_5ef386173b561",
            "label": "Instagram URL",
            "name": "instagram_url",
            "type": "url",
            "instructions": "<span style=\"color: #ff0000;\">DO NOT USE: This field will be deleted. Use the repeater field below to add a photographers links.<\/span>",
            "required": 0,
            "conditional_logic": 0,
            "wrapper": {
                "width": "",
                "class": "",
                "id": ""
            },
            "default_value": "",
            "placeholder": ""
        },
        {
            "key": "field_5eff7aaf51b40",
            "label": "Links",
            "name": "photographer_repeater",
            "type": "repeater",
            "instructions": "Add links",
            "required": 0,
            "conditional_logic": 0,
            "wrapper": {
                "width": "",
                "class": "",
                "id": ""
            },
            "collapsed": "",
            "min": 0,
            "max": 0,
            "layout": "table",
            "button_label": "Add Link",
            "sub_fields": [
                {
                    "key": "field_5eff99628014d",
                    "label": "Label",
                    "name": "photographer_link-label",
                    "type": "text",
                    "instructions": "Add the label for the link \"e.g. Instagram, Flickr, Personal Website, etc...\"",
                    "required": 0,
                    "conditional_logic": 0,
                    "wrapper": {
                        "width": "50",
                        "class": "",
                        "id": ""
                    },
                    "default_value": "",
                    "placeholder": "",
                    "prepend": "",
                    "append": "",
                    "maxlength": ""
                },
                {
                    "key": "field_5eff99a2cf846",
                    "label": "Link",
                    "name": "photographer_link-url",
                    "type": "url",
                    "instructions": "",
                    "required": 0,
                    "conditional_logic": 0,
                    "wrapper": {
                        "width": "50",
                        "class": "",
                        "id": ""
                    },
                    "default_value": "",
                    "placeholder": ""
                }
            ]
        }
    ],
    "location": [
        [
            {
                "param": "post_type",
                "operator": "==",
                "value": "photographer"
            }
        ]
    ],
    "menu_order": 0,
    "position": "normal",
    "style": "default",
    "label_placement": "top",
    "instruction_placement": "label",
    "hide_on_screen": "",
    "active": 1,
    "description": "",
    "modified": 1595216446
}