<?xml version="1.0" encoding="utf-8"?>
<!-- Generator: Adobe Illustrator 24.1.2, SVG Export Plug-In . SVG Version: 6.00 Build 0)  -->
<svg version="1.1" id="Layer_1" xmlns="http://www.w3.org/2000/svg" xmlns:xlink="http://www.w3.org/1999/xlink" x="0px" y="0px"
	 width="20px" height="7.6px" viewBox="0 0 20 7.6" style="enable-background:new 0 0 20 7.6;" xml:space="preserve">
<style type="text/css">
	.st0{fill-rule:evenodd;clip-rule:evenodd;fill:#0F2459;}
</style>
<desc>Created with Sketch.</desc>
<polygon id="Fill-23" class="st0" points="0,4.3 16.1,4.3 16.1,3.3 0,3.3 "/>
<path id="Fill-25" class="st0" d="M13.1,0c0,1.2,0.5,2.9,1.4,3.8c-0.9,0.9-1.4,2.6-1.4,3.8C14.3,6,17.5,4.4,20,3.8
	C17.5,3.2,14.3,1.6,13.1,0"/>
</svg>
