<?xml version="1.0" encoding="utf-8"?>
<!-- Generator: Adobe Illustrator 26.5.0, SVG Export Plug-In . SVG Version: 6.00 Build 0)  -->
<svg version="1.1" id="Layer_1" xmlns="http://www.w3.org/2000/svg" xmlns:xlink="http://www.w3.org/1999/xlink" x="0px" y="0px"
	 width="200px" height="200px" viewBox="0 0 200 200" style="enable-background:new 0 0 200 200;" xml:space="preserve">
<style type="text/css">
	.st0{fill:#3E4240;}
</style>
<path class="st0" d="M100,0C44.7,0,0,44.7,0,100s44.8,100,100,100c55.3,0,100-44.8,100-100C200,44.7,155.3,0,100,0L100,0z
	 M135.4,121.2c3.9,3.9,3.9,10.3,0,14.1c-2,2-4.5,2.9-7,2.9c-2.5,0-5.1-1-7-2.9l-21.2-21.2l-21.2,21.2c-2,2-4.5,2.9-7,2.9
	c-2.5,0-5.1-1-7-2.9c-3.9-3.9-3.9-10.3,0-14.1L86,100L64.8,78.8c-3.9-3.9-3.9-10.3,0-14.1c3.9-3.9,10.3-3.9,14.1,0l21.2,21.2
	l21.2-21.2c3.9-3.9,10.3-3.9,14.1,0c3.9,3.9,3.9,10.3,0,14.1L114.3,100l21.2,21.2H135.4z"/>
</svg>
