<?xml version="1.0" encoding="utf-8"?>
<!-- Generator: Adobe Illustrator 25.1.0, SVG Export Plug-In . SVG Version: 6.00 Build 0)  -->
<svg version="1.1" id="Layer_1" xmlns="http://www.w3.org/2000/svg" xmlns:xlink="http://www.w3.org/1999/xlink" x="0px" y="0px"
	 width="100px" height="100px" viewBox="0 0 100 100" style="enable-background:new 0 0 100 100;" xml:space="preserve">
<style type="text/css">
	.st0{fill:#FFFFFF;}
</style>
<path d="M89.3,48.1C82.2,34.3,66.7,25.4,50,25.4s-32.2,8.9-39.3,22.7l-1,1.9l1,1.9C17.8,65.7,33.3,74.6,50,74.6s32.2-8.9,39.3-22.7
	l1-1.9L89.3,48.1z M50,64.7c-8.1,0-14.7-6.6-14.7-14.7S41.9,35.3,50,35.3S64.7,41.9,64.7,50S58.1,64.7,50,64.7z"/>
<g>
	<g>
		<rect x="6" y="46.9" transform="matrix(0.7156 -0.6985 0.6985 0.7156 -20.7055 49.1455)" width="88" height="6.3"/>
		<path class="st0" d="M20.7,84.1l-5.5-5.6l0.6-0.5l63.6-62l5.5,5.6L20.7,84.1z M17.4,78.5l3.3,3.4l61.9-60.4l-3.3-3.4L17.4,78.5z"
			/>
	</g>
</g>
</svg>
