<?xml version="1.0" encoding="utf-8"?>
<!-- Generator: Adobe Illustrator 24.3.0, SVG Export Plug-In . SVG Version: 6.00 Build 0)  -->
<svg version="1.1" id="Layer_1" xmlns="http://www.w3.org/2000/svg" xmlns:xlink="http://www.w3.org/1999/xlink" x="0px" y="0px"
	 width="37px" height="37px" viewBox="0 0 37 37" style="enable-background:new 0 0 37 37;" xml:space="preserve">
<style type="text/css">
	.st0{fill:#EE3024;}
</style>
<g>
	<path class="st0" d="M18.5,0C8.3,0,0,8.3,0,18.5c0,5.9,2.7,11.3,7.4,14.8c3.2,2.4,7.1,3.7,11.1,3.7s7.9-1.3,11.1-3.7
		c4.7-3.5,7.4-8.9,7.4-14.8C37,8.3,28.7,0,18.5,0z M27.2,31.8c-0.2,0.1-0.3,0.2-0.5,0.3s-0.4,0.2-0.6,0.3s-0.3,0.2-0.5,0.3
		S25.2,32.9,25,33s-0.3,0.2-0.5,0.2c-0.2,0.1-0.4,0.2-0.7,0.2c-0.2,0.1-0.3,0.1-0.5,0.2c-0.2,0.1-0.5,0.1-0.7,0.2
		c-0.2,0-0.3,0.1-0.5,0.1C21.9,34,21.6,34,21.4,34s-0.3,0.1-0.5,0.1c-0.3,0-0.6,0.1-0.8,0.1c-0.1,0-0.3,0-0.4,0
		c-0.4,0-0.8,0.1-1.3,0.1s-0.8,0-1.3-0.1c-0.1,0-0.3,0-0.4,0c-0.3,0-0.6-0.1-0.8-0.1S15.6,34,15.4,34s-0.5-0.1-0.7-0.1
		s-0.3-0.1-0.5-0.1c-0.2-0.1-0.5-0.1-0.7-0.2c-0.2-0.1-0.3-0.1-0.5-0.2c-0.2-0.1-0.4-0.2-0.7-0.2c-0.2-0.1-0.3-0.1-0.5-0.2
		c-0.2-0.1-0.4-0.2-0.6-0.3c-0.2-0.1-0.3-0.2-0.5-0.3s-0.4-0.2-0.6-0.3c-0.2-0.1-0.3-0.2-0.5-0.3c-0.1-0.1-0.2-0.1-0.3-0.2
		c0.4-4.7,4.3-8.4,9-8.4c2.4,0,4.7,0.9,6.4,2.6c1.5,1.5,2.5,3.6,2.6,5.7C27.4,31.7,27.3,31.7,27.2,31.8z M12.9,13.3
		c0-3.1,2.5-5.6,5.6-5.6s5.6,2.5,5.6,5.6s-2.5,5.6-5.6,5.6S12.9,16.4,12.9,13.3z M29.8,29.7c-0.5-2.1-1.5-4.1-3.1-5.6
		c-1.5-1.5-3.4-2.5-5.4-3c3.1-1.2,5.4-4.1,5.4-7.7c0-4.5-3.7-8.2-8.2-8.2s-8.2,3.7-8.2,8.2c0,3.5,2.2,6.5,5.4,7.7
		c-4.2,1-7.5,4.4-8.5,8.7c-2.9-3-4.6-6.9-4.6-11.2c0-8.8,7.1-15.9,15.9-15.9s15.9,7.1,15.9,15.9C34.4,22.8,32.8,26.7,29.8,29.7z"/>
</g>
</svg>
