<?xml version="1.0" encoding="UTF-8"?>
<svg width="11px" height="18px" viewBox="0 0 11 18" version="1.1" xmlns="http://www.w3.org/2000/svg" xmlns:xlink="http://www.w3.org/1999/xlink">
    <!-- Generator: Sketch 60.1 (88133) - https://sketch.com -->
    <title>Path</title>
    <desc>Created with Sketch.</desc>
    <g id="Page-1" stroke="none" stroke-width="1" fill="none" fill-rule="evenodd">
        <g id="Desktop-HD-Case-Study-Single" transform="translate(-27.000000, -4260.000000)" fill="#FFFFFF" fill-rule="nonzero">
            <g id="Group-3" transform="translate(20.000000, 4253.000000)">
                <g id="angle-arrow-down-copy-3" transform="translate(12.500000, 16.000000) scale(-1, 1) rotate(-90.000000) translate(-12.500000, -16.000000) translate(4.000000, 11.000000)">
                    <path d="M16.8301366,1.03084284 L15.9784929,0.171877351 C15.865012,0.057172088 15.7342882,0 15.5865005,0 C15.4390708,0 15.3084067,0.057172088 15.1949258,0.171877351 L8.5000895,6.92438239 L1.80555156,0.172057894 C1.69201099,0.0573526314 1.56134686,0.000180543436 1.41373816,0.000180543436 C1.26606979,0.000180543436 1.13540566,0.0573526314 1.02192476,0.172057894 L0.170400345,1.03108356 C0.0566807871,1.1455481 0,1.27734481 0,1.42629314 C0,1.57512111 0.0568597791,1.70691782 0.170400345,1.82138236 L8.1082761,9.82824301 C8.221757,9.94276773 8.35248079,10 8.5000895,10 C8.6476982,10 8.77818334,9.94276773 8.89160458,9.82824301 L16.8301366,1.82138236 C16.9436175,1.70685764 17,1.57506093 17,1.42629314 C17,1.27734481 16.9436175,1.1455481 16.8301366,1.03084284 Z" id="Path"></path>
                </g>
            </g>
        </g>
    </g>
</svg>